<svg xmlns="http://www.w3.org/2000/svg" width="46.036" height="7.12" viewBox="0 0 46.036 7.12">
  <g id="m3_" transform="translate(-1458.636 -3017)">
    <path id="Caminho_12" data-name="Caminho 12" d="M4.488-6.24q2.16,0,2.16,2.556V0H4.836V-3.6A1.492,1.492,0,0,0,4.6-4.53a.886.886,0,0,0-.738-.294,1.253,1.253,0,0,0-.96.384,1.448,1.448,0,0,0-.36,1.032V0H.732V-4.344a14.146,14.146,0,0,0-.1-1.74h1.7l.12.96a2.239,2.239,0,0,1,.846-.828A2.406,2.406,0,0,1,4.488-6.24ZM10.992.1a3.581,3.581,0,0,1-1.7-.384,2.652,2.652,0,0,1-1.116-1.1,3.474,3.474,0,0,1-.39-1.68,3.474,3.474,0,0,1,.39-1.68,2.652,2.652,0,0,1,1.116-1.1,3.581,3.581,0,0,1,1.7-.384,3.518,3.518,0,0,1,1.68.384,2.661,2.661,0,0,1,1.11,1.1,3.474,3.474,0,0,1,.39,1.68,3.474,3.474,0,0,1-.39,1.68,2.661,2.661,0,0,1-1.11,1.1A3.518,3.518,0,0,1,10.992.1Zm0-1.38a1.235,1.235,0,0,0,1.026-.444,2.132,2.132,0,0,0,.354-1.344,2.136,2.136,0,0,0-.354-1.338,1.228,1.228,0,0,0-1.026-.45,1.258,1.258,0,0,0-1.044.45,2.11,2.11,0,0,0-.36,1.338Q9.588-1.284,10.992-1.284Zm8.436-4.788h1.788L18.54,0H17l-2.64-6.072h1.9l1.56,3.936Zm8.364-.012V0H26V-.9a1.915,1.915,0,0,1-.78.732A2.42,2.42,0,0,1,24.084.1a2.556,2.556,0,0,1-1.4-.384,2.583,2.583,0,0,1-.948-1.1,3.777,3.777,0,0,1-.342-1.65A3.9,3.9,0,0,1,21.738-4.7a2.671,2.671,0,0,1,.954-1.134,2.478,2.478,0,0,1,1.392-.4,2.334,2.334,0,0,1,1.14.276A2,2,0,0,1,26-5.22v-.864Zm-3.18,4.8a1.238,1.238,0,0,0,1.032-.456A2.092,2.092,0,0,0,26-3.06a2.119,2.119,0,0,0-.36-1.326,1.231,1.231,0,0,0-1.032-.462,1.245,1.245,0,0,0-1.044.48A2.126,2.126,0,0,0,23.2-3.036a2.02,2.02,0,0,0,.366,1.3A1.275,1.275,0,0,0,24.612-1.284Z" transform="translate(1458 3024)" fill="#6e6e6e"/>
    <path id="Caminho_13" data-name="Caminho 13" d="M37.656-6.552a2.6,2.6,0,0,1,1.926.714A2.909,2.909,0,0,1,40.3-3.7V0H38.424V-3.408a1.749,1.749,0,0,0-.318-1.146,1.118,1.118,0,0,0-.906-.378,1.335,1.335,0,0,0-1.044.426,1.836,1.836,0,0,0-.384,1.266V0H33.9V-3.408q0-1.524-1.224-1.524a1.321,1.321,0,0,0-1.032.426A1.836,1.836,0,0,0,31.26-3.24V0H29.388V-6.456h1.788v.744a2.363,2.363,0,0,1,.882-.624A2.969,2.969,0,0,1,33.2-6.552a2.776,2.776,0,0,1,1.236.27,2.189,2.189,0,0,1,.888.786,2.648,2.648,0,0,1,1-.78A3.161,3.161,0,0,1,37.656-6.552Zm7.116,2.4a2.356,2.356,0,0,1,1.41.685,1.888,1.888,0,0,1,.49,1.325,2.091,2.091,0,0,1-.32,1.125,2.229,2.229,0,0,1-.975.825,3.735,3.735,0,0,1-1.6.31,5.506,5.506,0,0,1-1.455-.2A3.748,3.748,0,0,1,41.1-.63l.63-1.24a3.052,3.052,0,0,0,.925.465,3.565,3.565,0,0,0,1.075.165,1.7,1.7,0,0,0,.96-.235.755.755,0,0,0,.35-.665q0-.86-1.31-.86h-.74V-4.07l1.44-1.63h-2.98V-7h4.9v1.05Z" transform="translate(1458 3024)" fill="#80a735"/>
  </g>
</svg>
